<?xml version="1.0" encoding="utf-8"?>
<!-- Generator: Adobe Illustrator 22.0.0, SVG Export Plug-In . SVG Version: 6.00 Build 0)  -->
<svg version="1.1" id="Capa_1" xmlns="http://www.w3.org/2000/svg" xmlns:xlink="http://www.w3.org/1999/xlink" x="0px" y="0px"
	 viewBox="0 0 1920 1080" style="enable-background:new 0 0 1920 1080;" xml:space="preserve">
<style type="text/css">
	.st0{fill:url(#SVGID_1_);}
	.st1{fill:#FFFFFF;}
	.st2{fill:none;stroke:#FFFFFF;stroke-width:1.3951;stroke-miterlimit:10;}
	.st3{fill:none;stroke:#FFFFFF;stroke-width:1.03;stroke-miterlimit:10;}
	.st4{fill:none;stroke:#FFFFFF;stroke-width:1.018;stroke-miterlimit:10;}
	.st5{fill:none;stroke:#FFFFFF;stroke-width:1.429;stroke-miterlimit:10;}
	.st6{fill:none;stroke:#FFFFFF;stroke-width:0.7536;stroke-miterlimit:10;}
	.st7{opacity:0.51;fill:none;stroke:#FFFFFF;stroke-width:1.2924;stroke-miterlimit:10;}
	.st8{opacity:0.51;fill:none;stroke:#FFFFFF;stroke-width:1.5446;stroke-miterlimit:10;}
	.st9{opacity:0.51;fill:none;stroke:#FFFFFF;stroke-width:1.5638;stroke-miterlimit:10;}
	.st10{opacity:0.51;fill:none;stroke:#FFFFFF;stroke-width:1.3408;stroke-miterlimit:10;}
	.st11{opacity:0.51;fill:none;stroke:#FFFFFF;stroke-width:1.6705;stroke-miterlimit:10;}
	.st12{opacity:0.51;fill:none;stroke:#FFFFFF;stroke-width:1.5735;stroke-miterlimit:10;}
	.st13{fill:none;stroke:#FFFFFF;stroke-width:1.9783;stroke-miterlimit:10;}
</style>
<linearGradient id="SVGID_1_" gradientUnits="userSpaceOnUse" x1="-30.9923" y1="549.1852" x2="1922.3411" y2="549.1852">
	<stop  offset="0.1056" style="stop-color:#04A6D0"/>
	<stop  offset="0.3784" style="stop-color:#149FD1"/>
	<stop  offset="0.5185" style="stop-color:#139ED0"/>
	<stop  offset="0.66" style="stop-color:#0087C4"/>
	<stop  offset="0.6672" style="stop-color:#0984C2"/>
	<stop  offset="0.6899" style="stop-color:#217EBC"/>
	<stop  offset="0.7159" style="stop-color:#3378B8"/>
	<stop  offset="0.7465" style="stop-color:#4075B4"/>
	<stop  offset="0.7864" style="stop-color:#4873B3"/>
	<stop  offset="0.8694" style="stop-color:#4A72B2"/>
	<stop  offset="0.8865" style="stop-color:#4A72B2"/>
	<stop  offset="0.9898" style="stop-color:#4A72B2"/>
</linearGradient>
<rect x="-9.3" y="-2" class="st0" width="1953.3" height="1102.3"/>
<g>
	<circle class="st1" cx="1770.8" cy="768.3" r="6.5"/>
	<line class="st2" x1="1772.7" y1="772.3" x2="1727.7" y2="896.7"/>
	<circle class="st1" cx="1732.2" cy="904.7" r="13.1"/>
	<line class="st3" x1="1725.7" y1="894.9" x2="1641.4" y2="864.4"/>
	<circle class="st1" cx="1643.6" cy="858.6" r="8.8"/>
	<circle class="st1" cx="1671" cy="772.1" r="15.8"/>
	<line class="st4" x1="1669.4" y1="765.7" x2="1643.5" y2="858.6"/>
	<line class="st2" x1="1672.1" y1="781.7" x2="1729.5" y2="900.8"/>
	<line class="st5" x1="1730.2" y1="900.2" x2="1848" y2="941.5"/>
	<circle class="st1" cx="1818.1" cy="815.7" r="10.6"/>
	<line class="st6" x1="1819.9" y1="812.9" x2="1769.6" y2="770.6"/>
	<polygon class="st7" points="1755.3,1020.1 1750.3,998.4 1729,992 1712.8,1007.2 1717.9,1028.8 1739.1,1035.3 	"/>
	<polygon class="st8" points="1608.7,995.9 1602.7,970 1577.3,962.3 1557.9,980.4 1563.9,1006.3 1589.3,1014 	"/>
	<line class="st3" x1="1849.2" y1="941.5" x2="1808.3" y2="873.7"/>
	<polygon class="st8" points="1685.7,957.7 1679.7,931.9 1654.3,924.2 1634.9,942.3 1640.9,968.2 1666.3,975.9 	"/>
	<polygon class="st7" points="1839.7,822.1 1834.6,800.5 1813.4,794.1 1797.1,809.2 1802.2,830.9 1823.4,837.3 	"/>
	<polygon class="st7" points="1665.4,866.1 1660.4,844.5 1639.1,838 1622.9,853.2 1627.9,874.8 1649.2,881.3 	"/>
	<polygon class="st9" points="1843.4,823.7 1837.3,797.5 1811.6,789.7 1792,808 1798.1,834.2 1823.8,842 	"/>
	<polygon class="st10" points="1754.9,912.3 1749.7,889.8 1727.6,883.1 1710.8,898.9 1716,921.3 1738.1,928 	"/>
	<polygon class="st11" points="1760.6,913.5 1754.1,885.6 1726.7,877.2 1705.7,896.8 1712.2,924.8 1739.7,933.1 	"/>
	<polygon class="st12" points="1670.2,867.7 1664.1,841.3 1638.2,833.5 1618.5,851.9 1624.6,878.3 1650.5,886.1 	"/>
	<circle class="st1" cx="1847.9" cy="940.6" r="6.5"/>
	<circle class="st1" cx="1808.8" cy="872.7" r="6.5"/>
	<line class="st6" x1="1805.7" y1="874.9" x2="1744.4" y2="898.5"/>
	<line class="st6" x1="1822.4" y1="811.9" x2="1804.8" y2="875.1"/>
	<circle class="st1" cx="1547.9" cy="913.3" r="6.5"/>
	<line class="st13" x1="1547" y1="913" x2="1720.4" y2="902.9"/>
</g>
</svg>
